{
  "app": {
    "signingConfigs": [
      {
        "name": "default",
        "type": "HarmonyOS",
        "material": {
          "certpath": "/Users/snows_l/.ohos/config/auto_debug_HNOS_Skill_APP_com.example.hmos_skill_app_2850086000462080866.cer",
          "storePassword": "0000001B57FD1B91CDA0181F415DB19436C59CDA93ECF9AC9CF79C8F5005D4617B808A1A85224E586285FF",
          "keyAlias": "debugKey",
          "keyPassword": "0000001B4EFE8023CCCA6A1ED59C4BB624B8680CCE10842022A2180CD7586DDBA275E86519247DED1D38BC",
          "profile": "/Users/snows_l/.ohos/config/auto_debug_HNOS_Skill_APP_com.example.hmos_skill_app_2850086000462080866.p7b",
          "signAlg": "SHA256withECDSA",
          "storeFile": "/Users/snows_l/.ohos/config/auto_debug_HNOS_Skill_APP_com.example.hmos_skill_app_2850086000462080866.p12"
        }
      }
    ],
    "compileSdkVersion": 9,
    "compatibleSdkVersion": 9,
    "products": [
      {
        "name": "default",
        "signingConfig": "default",
      }
    ]
  },
  "modules": [
    {
      "name": "entry",
      "srcPath": "./entry",
      "targets": [
        {
          "name": "default",
          "applyToProducts": [
            "default"
          ]
        }
      ]
    }
  ]
}